<?xml version="1.0" encoding="UTF-8"?>
<svg width="163px" height="17px" viewBox="0 0 163 17" version="1.1" xmlns="http://www.w3.org/2000/svg" xmlns:xlink="http://www.w3.org/1999/xlink">
    <!-- Generator: Sketch 55.2 (78181) - https://sketchapp.com -->
    <title>Rectangle</title>
    <desc>Created with Sketch.</desc>
    <g id="Day-1" stroke="none" stroke-width="1" fill="none" fill-rule="evenodd">
        <path d="M-7.59581611,16.1051762 C-33.2983869,16.1051762 -30.8350269,16.1051762 -0.205736252,16.1051762 C45.7381998,16.1051762 51.8589979,0 90.5928428,0 C129.326688,0 147.66541,16.1051762 162.56098,16.1051762 C172.491359,16.1051762 179.069644,16.1051762 182.295832,16.1051762 L-7.59581611,16.1051762 Z" id="Rectangle" fill="#0797E1"></path>
    </g>
</svg>