<svg xmlns="http://www.w3.org/2000/svg" viewBox="0 0 31.503 25.59">
  <defs>
    <style>
      .cls-1 {
        fill: #707070;
      }
    </style>
  </defs>
  <g id="icon-twitter" transform="translate(0)">
    <g id="Group_76" data-name="Group 76" transform="translate(0 0)">
      <path id="Path_203" data-name="Path 203" class="cls-1" d="M31.5,60.469a12.906,12.906,0,0,1-3.711,1.018,6.489,6.489,0,0,0,2.841-3.573,13.029,13.029,0,0,1-4.107,1.569,6.468,6.468,0,0,0-11.012,5.892A18.348,18.348,0,0,1,2.2,58.622a6.47,6.47,0,0,0,2,8.626,6.463,6.463,0,0,1-2.927-.811v.081a6.469,6.469,0,0,0,5.183,6.337,6.546,6.546,0,0,1-1.7.226,6.2,6.2,0,0,1-1.217-.12A6.466,6.466,0,0,0,9.568,77.45a12.966,12.966,0,0,1-8.026,2.762A13.732,13.732,0,0,1,0,80.123a18.268,18.268,0,0,0,9.906,2.908c11.888,0,18.387-9.847,18.387-18.387l-.022-.837A12.905,12.905,0,0,0,31.5,60.469Z" transform="translate(-0.001 -57.441)"/>
    </g>
  </g>
</svg>
