<?xml version="1.0" encoding="UTF-8"?>
<svg width="74px" height="90px" viewBox="0 0 74 90" version="1.1" xmlns="http://www.w3.org/2000/svg" xmlns:xlink="http://www.w3.org/1999/xlink">
    <title>lock</title>
    <g id="New-Red" stroke="none" stroke-width="1" fill="none" fill-rule="evenodd">
        <path d="M37.0120592,7.27145513e-05 C47.4638033,0.126121341 55.8760946,8.57484423 55.9992188,18.9800157 L56,29.9990727 L73,30 C73.5128358,30 73.9355072,30.3860402 73.9932723,30.8833789 L74,31 L74,89 C74,89.5522847 73.5522847,90 73,90 L73,90 L1,90 C0.44771525,90 0,89.5522847 0,89 L0,89 L0,31 C0,30.4477153 0.44771525,30 1,30 L1,30 L17.999,29.9990727 L17.9994272,19.3255325 C17.9412705,8.75949542 26.4225908,0.127491435 37.0120592,7.27145513e-05 Z M72,80.9990727 L2,80.9990727 L2,88 L72,88 L72,80.9990727 Z M72,32 L2,32 L2,78.9990727 L72,78.9990727 L72,32 Z M29.4717606,48.4930999 C30.7801851,44.8514352 34.5075098,42.6682878 38.3237952,43.3083368 C42.1400744,43.9483848 44.951192,47.2281208 45.0000503,51.1073531 C45.0068834,53.6997207 43.7772752,56.120749 41.7231168,57.6466276 L41.7231168,57.6466276 L41.499,57.806 L41.5,64.44 C41.5,66.8542733 39.5987635,68.8244891 37.2118357,68.935102 L37.2118357,68.935102 L37,68.94 C34.5147186,68.94 32.5,66.9252814 32.5,64.44 L32.5,64.44 L32.499,57.811 L32.3408019,57.7013871 C29.5296241,55.6899849 28.3124113,52.0685475 29.3868686,48.7420077 L29.3868686,48.7420077 Z M37.9929851,45.2807883 C35.1307711,44.8007515 32.3352775,46.438112 31.3539592,49.1693606 C30.3726409,51.9006092 31.4868422,54.9426955 34.0000793,56.3940204 L34.0000793,56.3940204 L34.5,56.6827108 L34.5,64.44 C34.5,65.8207119 35.6192881,66.94 37,66.94 C38.3807119,66.94 39.5,65.8207119 39.5,64.44 L39.5,64.44 L39.5,56.6891343 L39.9915766,56.3988928 C41.8609982,55.2951303 43.005775,53.2836046 43.0001256,51.1225993 C42.9635391,48.2206315 40.8551966,45.7608246 37.9929851,45.2807883 Z M37.0120592,1.99992729 C27.6549161,2.11277496 20.1222541,9.67109914 20.0009295,18.9940731 L19.999,29.9990727 L54,29.9990727 L54.000303,19.3144675 C54.0526774,9.84788082 46.4538879,2.11408714 37.0120592,1.99992729 Z" id="lock" fill="#ED1E45" fill-rule="nonzero"></path>
    </g>
</svg>